https://raw.githubusercontent.com/fuwutu/CodeForces/master/1B%20-%20Spreadsheet.cpp
https://raw.githubusercontent.com/mkirsche/Codeforces/master/1-B/1-B-2826145.java
https://raw.githubusercontent.com/changyuheng/codeforces-solutions/master/1b.py
