https://trungduc1104.wordpress.com/2014/07/07/wechall-addslashes/
http://rk700.github.io/2014/06/17/addslashes/
http://blog.csdn.net/qq_19876131/article/details/50594894#t6
http://qkqhxla1.tistory.com/374
http://byd.dropsec.xyz/2016/07/23/Webchall-CTF-writeup2/
https://medium.com/bugbountywriteup/wechall-wargame-solutions-76f60ea39b16
http://www.hackdig.com/02/hack-18982.htm
http://blog.wangxiyu.me/articles/wechall_sql.html

