https://raw.githubusercontent.com/Mitame/hackerrank-solutions/master/algorithms/warmup/time-conversion.c
https://raw.githubusercontent.com/sharon-lin/Hackerrank-Solutions/master/Algorithms/Warmup/Time-conversion.cpp
https://raw.githubusercontent.com/RyanFehr/HackerRank/master/Algorithms/Warmup/Time%20Conversion/Solution.cs
https://raw.githubusercontent.com/Lytol/hackerrank-go/master/time-conversion/main.go
https://raw.githubusercontent.com/rdacquisto/hacker-rank/master/time-conversion.js
https://raw.githubusercontent.com/R-Wang97/HackerRank/master/Time%20Conversion/Solution.java
https://raw.githubusercontent.com/danhenriquesc/hackerrank/master/algorithms/warmup/time_conversion.php
https://raw.githubusercontent.com/vinsonlee/hackerrank/master/challenges/time-conversion/time-conversion.py
https://raw.githubusercontent.com/marioluan/hacker-rank-solved-problems/master/algorithms/warmup/time-conversion.rb
https://raw.githubusercontent.com/pbrit/hackerrank-rust/master/time-conversion/src/main.rs
https://raw.githubusercontent.com/alexanderscott/HackerRank/master/Algorithms/Warmup/time-conversion.scala
https://raw.githubusercontent.com/rajibsingh/hackerrank-swift/master/time-conversion.swift
