https://raw.githubusercontent.com/jingcmu/codeeval/master/ROMAN%20NUMERALS.cpp
https://raw.githubusercontent.com/pascal-bourut/codeeval-challenges/master/easy/106%20-%20Roman%20Numerals/106.js
https://raw.githubusercontent.com/pascal-bourut/codeeval-challenges/master/easy/106%20-%20Roman%20Numerals/106.php
