https://raw.githubusercontent.com/akalin/cryptopals-python3/master/challenge35.py
https://raw.githubusercontent.com/akalin/cryptopals-python3/master/challenge35_attacker.py
https://raw.githubusercontent.com/akalin/cryptopals-python3/master/challenge35_server.py
https://raw.githubusercontent.com/technion/matasano_challenge/master/set5/chal35/chal35.rb
