https://www.youtube.com/watch?v=CYeVUmOar3I
https://www.youtube.com/watch?v=qDWpDLIEARc
https://www.youtube.com/watch?v=9ASNMFhVENY
https://mundo-hackers.weebly.com/cronos.html
https://jasperandgarrison.wordpress.com/2017/12/13/hackthebox-cronos/
https://drive.google.com/file/d/1fU7O_nPqL9dbhcaZftUHwFjhpC72U31M/view
http://www.hackingarticles.in/hack-the-box-challenge-cronos-walkthrough/
https://forum.hackthebox.eu/discussion/33/cronos-write-up-by-hkh4cks#latest
https://www.peerlyst.com/posts/how-to-hackthebox-cronos-machine-writeup-spirited-wolf
