https://raw.githubusercontent.com/To1ne/cryptopals-c/master/challenge_01/main.c
https://raw.githubusercontent.com/shierve/matasano-crypto-challenges/master/set1.cc
https://raw.githubusercontent.com/BobGneu/cryptopals-csharp/master/src/Crypto/Solver.cs
https://raw.githubusercontent.com/adamenger/cryptopals-solutions/master/1/one.go
https://raw.githubusercontent.com/yaychris/cryptopals/master/src/challenge1.rs
https://raw.githubusercontent.com/Daeinar/cryptopals/master/src/c01.rs
https://raw.githubusercontent.com/jaybosamiya/cryptopals-solutions/master/set1/1/run.py
https://raw.githubusercontent.com/akalin/cryptopals-python3/master/challenge1.py
https://www.youtube.com/watch?v=s9uwKqyZPK8
https://raw.githubusercontent.com/aklap/cryptopals-solutions/master/set_1/challenge1/solution1.py
https://raw.githubusercontent.com/ricpacca/cryptopals/master/S1C01.py
https://raw.githubusercontent.com/technion/matasano_challenge/master/set1/chal1/chal1.rb
