https://raw.githubusercontent.com/igor-kutepov/codeabbey/master/src/main/java/com/kutepov/samples/codeabbey/AzimuthAtTreasureIsland.java
https://raw.githubusercontent.com/Xzya/CodeAbbeySolutions/master/AzimuthAtTreasureIsland.py
https://raw.githubusercontent.com/JesseClarkND/codeabbey_in_C-NET/master/Azimuth%20at%20Treasure%20Island
