https://raw.githubusercontent.com/chrisdfrey/code-abbey-solutions/master/depth-first-search.py
https://www.hackerearth.com/practice/algorithms/graphs/depth-first-search/tutorial/
https://www.programiz.com/dsa/graph-dfs
