https://raw.githubusercontent.com/nikzsaz/Codeforces-solution/master/200B-Drinks.cpp
https://raw.githubusercontent.com/changyuheng/codeforces-solutions/master/200b.py
https://raw.githubusercontent.com/Erfaniaa/Codeforces/master/200B-Drinks.pas
