https://raw.githubusercontent.com/sile/euler.rs/master/euler_02/src/problem057.rs
https://raw.githubusercontent.com/nayuki/Project-Euler-solutions/master/java/p057.java
https://raw.githubusercontent.com/kdungs/euler/master/057/euler_57.py
https://www.mathblog.dk/project-euler-57-square-root-two/
