https://www.mathblog.dk/pythagorean-triplets/
https://raw.githubusercontent.com/nayuki/Project-Euler-solutions/master/haskell/p009.hs
https://raw.githubusercontent.com/nayuki/Project-Euler-solutions/master/java/p009.java
https://raw.githubusercontent.com/nayuki/Project-Euler-solutions/master/mathematica/p009.mathematica
https://raw.githubusercontent.com/nayuki/Project-Euler-solutions/master/python/p009.py
https://raw.githubusercontent.com/zsiciarz/euler.rs/master/src/solutions/problem9.rs
