https://raw.githubusercontent.com/anomen-s/programming-challenges/master/root-me.org/Web-Server/Install-files/run.sh
https://github.com/yelynn1/Root-me/blob/master/Web_server.md#8
https://bitbelle.wordpress.com/2018/01/10/root-me-web-server-challenge-solutions/
https://kid0604.github.io/ctf/2015/09/30/rootme-webserver-writeup.html
https://www.youtube.com/watch?v=_EMZhUhFxfs
https://www.youtube.com/watch?v=mZNQeUN1CYw
https://www.securecorp.co.kr/tag/root-me%20install%20files
http://exp-blog.com/2019/01/13/pid-2974/
https://rootable.tistory.com/entry/RootmeWebServer-install-files
http://www.zvezdny.spb.ru/1uns5l4/rtjhwjc.php?uqfqvzojz=crlf-root-me
https://mtucx.tistory.com/category/%23Challenges/Root-Me
https://hackinblood.lasermark.co/web-server-root-me-2/
