https://raw.githubusercontent.com/Daeinar/cryptopals/master/src/c18.rs
https://raw.githubusercontent.com/jaybosamiya/cryptopals-solutions/master/set3/18/run.py
https://raw.githubusercontent.com/jaybosamiya/cryptopals-solutions/master/set3/18/AES_128.py
https://raw.githubusercontent.com/akalin/cryptopals-python3/master/challenge18.py
https://raw.githubusercontent.com/technion/matasano_challenge/master/set3/chal18/chal18.rb
