https://medium.com/@leighhall/vulnhub-com-moria-1-1-ctf-wip-solution-99b54975c133
https://medium.com/@andr3w_hilton/moria-ctf-vm-vulnhub-com-cb55d40236a6
https://www.willchatham.com/security/moria-a-boot2root-vm-walkthrough/
https://cqdeof.blogspot.com/2017/04/vulnhub-walkthrough-moria-1.html
https://scriptkidd1e.wordpress.com/moria-1-vulnhubs-vm-walkthrough/
https://raw.githubusercontent.com/Hamza-Megahed/CTFs/master/moria/README
https://phackt.com/moria-vulnhub
