https://raw.githubusercontent.com/mpillar/codeeval/master/1-moderate/predict-the-number/main.py
https://gist.githubusercontent.com/fintara/8526152/raw/09df53989242dc249186940235ded52f59459c8e/PredictTheNumber.php
https://raw.githubusercontent.com/pascal-bourut/codeeval-challenges/master/moderate/125%20-%20Predict%20the%20number/125.js
https://raw.githubusercontent.com/nikai3d/ce-challenges/master/moderate/predict_the_number.r
https://raw.githubusercontent.com/nikai3d/ce-challenges/master/moderate/predict_the_number.scala
https://raw.githubusercontent.com/nikai3d/ce-challenges/master/moderate/predict_the_number.rb
https://raw.githubusercontent.com/nikai3d/ce-challenges/master/moderate/predict_the_number.pl
https://raw.githubusercontent.com/nikai3d/ce-challenges/master/moderate/predict_the_number.lua
https://raw.githubusercontent.com/nikai3d/ce-challenges/master/moderate/predict_the_number.hs
https://raw.githubusercontent.com/nikai3d/ce-challenges/master/moderate/predict_the_number.go
https://raw.githubusercontent.com/nikai3d/ce-challenges/master/moderate/predict_the_number.f90
https://raw.githubusercontent.com/nikai3d/ce-challenges/master/moderate/predict_the_number.clj
https://raw.githubusercontent.com/nikai3d/ce-challenges/master/moderate/predict_the_number.c
