http://joizel.readthedocs.io/ko/latest/web/Condition/[wechall]%20php0818.html
http://byd.dropsec.xyz/2016/07/23/Webchall-CTF-writeup2/
https://medium.com/bugbountywriteup/wechall-wargame-solutions-76f60ea39b16
