https://raw.githubusercontent.com/suuuzi/Competitive-Programming/master/CodeWars/7kyu/Vowel%20Count.java
https://raw.githubusercontent.com/PunitGr/codeabbey/master/Vowel%20Count.py
https://raw.githubusercontent.com/marclerodrigues/ruby_exercises/master/vowel_count.rb
https://gist.githubusercontent.com/timconnor1/d5348bbe3388717be0d3/raw/b57b8285d0b5b53e6d79f5bb183913429b69927f/problem20.cpp
https://raw.githubusercontent.com/Tempurturtul/CodeAbbey/master/C%23/VowelCount.cs
https://raw.githubusercontent.com/jsenne/Code-Abbey-Solutions/master/020_vowelCount.js
https://raw.githubusercontent.com/chriswood/codeabbey/master/ca9.lisp
https://raw.githubusercontent.com/RyanLafferty/CodeAbbey/master/p20.c
https://raw.githubusercontent.com/mpeshehonov/Codeabbey/master/practice/%2320/index.php
https://raw.githubusercontent.com/mmcdon20/code_abbey/master/src/main/scala/Abbey020.scala
https://gitlab.com/CodeArtisan/codeabbey/raw/master/problem_20/solution.rkt
https://gist.githubusercontent.com/nocko/5da6c4c4bfcad5eb01c96bac632adca9/raw/4fa96cdd08668e4996a63847b5985751a42472fc/hello.adb
https://bash.cyberciti.biz/academic/count-vowels-blank-spaces-characters-lline-symbols/
https://raw.githubusercontent.com/skilled19/sols/master/NextHendrix-20-vowel-count.hs
