https://raw.githubusercontent.com/codejoydo/codeforces/master/71a.c
https://raw.githubusercontent.com/fuwutu/CodeForces/master/71A%20-%20Way%20Too%20Long%20Words.cpp
https://raw.githubusercontent.com/yeicol/CodeForces/master/CF071AWayTooLongWords.java
https://raw.githubusercontent.com/sh19910711/codeforces-solutions/master/71A/71A.go
https://cfsolv.blogspot.com/search/label/cf%2071A
