https://raw.githubusercontent.com/haotian-wu/Hackerrank_solutions/master/GraphTheory/crab-graphs.cpp
https://raw.githubusercontent.com/hypersolid/competitive-programming/master/hackerrank/algorithms/graph_theory/Crab-Graphs.java
https://raw.githubusercontent.com/lerovitch/coursera/master/hackerrank/crab-graphs/main.py
