https://github.com/p1o2p3u1/WeChall/blob/master/Training/Crypto_Caesar_I.md
http://sp4hack.blogspot.com.co/2012/10/we-chall-training-crypto-caesar-i.html
http://winkar.github.io/2015/01/24/wechall.html
https://raw.githubusercontent.com/BirkhoffLee/wechall/master/exploit/Training%20Crypto%20-%20Caesar%20I/README.md
https://raw.githubusercontent.com/stefanoschrs/wechall/master/Crypto/Crypto%20-%20Caesar%20I.js
https://raw.githubusercontent.com/james9909/PracticeCTF/master/WeChall/Caesar-1/Solution.txt
http://m.blog.csdn.net/article/details?id=40948203
http://iromise.com/2016/07/21/wechall-training-crypto-caesar-i/
http://www.cnblogs.com/WangAoBo/p/6367408.html
http://www.voidcn.com/blog/justesss/article/p-2605865.html
http://www.tqcto.com/article/internet/345989.html
https://raw.githubusercontent.com/p1o2p3u1/WeChall/master/Training/Crypto_Caesar_I.md
http://byd.dropsec.xyz/2016/03/04/WeChall_writeup/#Training-Crypto-Caesar-I
https://medium.com/bugbountywriteup/wechall-wargame-solutions-76f60ea39b16
