https://raw.githubusercontent.com/nayuki/Project-Euler-solutions/master/java/p016.java
https://raw.githubusercontent.com/zsiciarz/euler.rs/master/src/solutions/problem16.rs
https://raw.githubusercontent.com/smacke/project-euler/master/python/16.py
https://www.mathblog.dk/project-euler-16/
https://raw.githubusercontent.com/zimpha/competitive-programming/master/project-euler/volume01/16.cc
https://raw.githubusercontent.com/nayuki/Project-Euler-solutions/blob/master/haskell/p016.hs
