https://raw.githubusercontent.com/nayuki/Project-Euler-solutions/master/java/p116.java
https://raw.githubusercontent.com/nayuki/Project-Euler-solutions/master/python/p116.py
https://www.mathblog.dk/project-euler-116-coloured-tiles/
