1A 1C 1E 1D 1F 21 20 22 24 23 25 27 26 28 2A 29 2B 2D 2C 2E 30 2F 31 33 32 34
34 36 38 37 39 3B 3A 3C 3E 3D 3F 41 40 42 44 43 45 47 46 48 4A 49 4B 4D 4C 4E
10 12 14 13 15 17 16 18 1A 19
26 11 29 15 2E 15 2B
