https://www.codeabbey.com/index/task_solution?task=star-medals&user=boerdereinar&lang=C%23
https://www.codeabbey.com/index/task_solution?task=star-medals&user=brian-cheung&lang=Python
https://www.codeabbey.com/index/task_solution?task=star-medals&user=bluknite&lang=Scala
https://www.codeabbey.com/index/task_solution?task=star-medals&user=thsantoli1&lang=Haskell
https://www.codeabbey.com/index/task_solution?task=star-medals&user=vladimir-skvortsov&lang=Ruby
https://www.codeabbey.com/index/task_solution?task=star-medals&user=matthias&lang=JavaScript
https://www.codeabbey.com/index/task_solution?task=star-medals&user=simonrothone&lang=Java.
https://www.codeabbey.com/index/task_solution?task=star-medals&user=betalllll&lang=C%2FC%2B%2B
https://www.codeabbey.com/index/task_solution?task=star-medals&user=guygervais1&lang=VB
https://www.codeabbey.com/index/task_solution?task=star-medals&user=ccgaviria&lang=Ocaml
https://raw.githubusercontent.com/JesseClarkND/codeabbey_in_C-NET/master/Star%20Medals
