https://raw.githubusercontent.com/mpfeifer1/Codeforces/master/472a.cpp
https://raw.githubusercontent.com/changyuheng/codeforces-solutions/master/472a.go
https://raw.githubusercontent.com/dwiajik/codeforces/master/472A.py
https://codemanic.wordpress.com/2015/04/05/codeforces-472a-design-tutorial-learn-from-math/
