https://raw.githubusercontent.com/nayuki/Project-Euler-solutions/master/java/p090.java
https://raw.githubusercontent.com/nayuki/Project-Euler-solutions/master/python/p090.py
https://www.mathblog.dk/project-euler-90-cubes-make-square/
