https://raw.githubusercontent.com/adityagupta1089/Codeforces-Solutions/master/P451A.cpp
https://raw.githubusercontent.com/dwiajik/codeforces/master/451A.py
https://raw.githubusercontent.com/mkirsche/Codeforces/master/451-A/451-A-7502022.java
