https://raw.githubusercontent.com/ArnoldM904/CodeAbbey_Solutions/master/Python/id022-Two_Printers.py
https://raw.githubusercontent.com/JFMurphy/Codeabbey-solutions/master/Java/P022_TwoPrinters.java
https://raw.githubusercontent.com/Chainsawkitten/CodeAbbeyProblems/master/src/Problem%2022/Problem%2022.cpp
https://raw.githubusercontent.com/AleksandrSD/CodeAbbeyProblems/master/Problem22/Program.cs
https://raw.githubusercontent.com/lpil/learning-ruby/master/codeabbey/035_two_printers.rb
https://raw.githubusercontent.com/mpeshehonov/Codeabbey/master/practice/%2322/index.php
https://raw.githubusercontent.com/skilled19/sols/master/simbiont666-codeabbey-twoprinters.hs
