https://groheresearch.blogspot.com/2016/11/ringzer0-ctf-challenge-time-to-learn.html
https://raw.githubusercontent.com/professormahi/CTF/master/ringzer0team/Binaries/Time%20to%20Learning%20x86%20ASM%20%26%20gdb/TimetoLearningx86ASMAndgdb.markdown
https://raw.githubusercontent.com/rebe11ion/CTF/master/ringzer0team/Binaries/Time%20to%20Learning%20x86%20ASM%20%26%20gdb/TimetoLearningx86ASMAndgdb.markdown
