https://raw.githubusercontent.com/nayuki/Project-Euler-solutions/master/java/p092.java
https://raw.githubusercontent.com/nayuki/Project-Euler-solutions/master/python/p092.py
https://www.mathblog.dk/project-euler-92-square-digits-number-chain/
