http://hackerorgsolution.blogspot.com.co/2014/09/basic.html
https://raw.githubusercontent.com/charles-wangkai/hacker.org/master/challenge/Basic.py
https://raw.githubusercontent.com/luceatnobis/challenges/master/hacker.org/basic/basic.pl
