https://medium.com/@honze_net/vulnhub-minu-1-write-up-8032fdda5939
https://hackso.me/minu-1-walkthrough/
https://latesthackingnews.com/2018/11/02/minu-1-vulnhub-hacking-challenge-walkthrough/
https://hk.saowen.com/a/f8e606f034a631435168cf81336295eb58059e35a1c493700e70de8f844f3357

