https://raw.githubusercontent.com/JFMurphy/Codeabbey-solutions/master/Java/P015_MaximumOfArray.java
https://raw.githubusercontent.com/vinitkantrod/codeabbey-Solutions-in-Python/master/6_maximum_of_array.py
https://raw.githubusercontent.com/marclerodrigues/ruby_exercises/master/max_of_array.rb
https://raw.githubusercontent.com/gravoo/codeabbey/master/%20Maximum%20of%20array%20.cpp
https://raw.githubusercontent.com/Tempurturtul/CodeAbbey/master/C%23/MaxOfArray.cs
https://raw.githubusercontent.com/danielmmetz/codeabbey/master/id15.hs
https://raw.githubusercontent.com/DylanLenz/codeAbbey_Solutions_JavaScript/master/maximumOfArray_codeAbbey_15.js
https://raw.githubusercontent.com/mpeshehonov/Codeabbey/master/practice/%2315/index.php
https://raw.githubusercontent.com/RyanLafferty/CodeAbbey/master/p15.c
https://raw.githubusercontent.com/mmcdon20/code_abbey/master/src/main/scala/Abbey015.scala
https://gitlab.com/CodeArtisan/codeabbey/raw/master/problem_15/solution.rkt
https://www.youtube.com/watch?v=G4w8MZ9TIaI
https://raw.githubusercontent.com/skilled19/sols/master/Mohamed%20Aziz-15-maximum-of-array.fs
