https://raw.githubusercontent.com/nayuki/Project-Euler-solutions/master/java/p133.java
https://raw.githubusercontent.com/nayuki/Project-Euler-solutions/master/python/p133.py
https://www.mathblog.dk/project-euler-133-repunit-nonfactors/
