https://raw.githubusercontent.com/sile/euler.rs/master/euler_03/src/problem084.rs
https://raw.githubusercontent.com/nayuki/Project-Euler-solutions/master/java/p084.java
https://raw.githubusercontent.com/nayuki/Project-Euler-solutions/master/python/p084.py
https://www.mathblog.dk/project-euler-84-monopoly-popular-squares/
