https://raw.githubusercontent.com/lexandro/codeeval/master/1-Moderate/BurrowsWheelerTransform/src/main/java/Main.java
https://raw.githubusercontent.com/ferhatelmas/algo/master/codeEval/medium/burrows_wheeler_transform.py
https://raw.githubusercontent.com/nikai3d/ce-challenges/master/moderate/burrows_wheeler.r
https://raw.githubusercontent.com/nikai3d/ce-challenges/master/moderate/burrows_wheeler.rb
https://raw.githubusercontent.com/nikai3d/ce-challenges/master/moderate/burrows_wheeler.lua
https://raw.githubusercontent.com/nikai3d/ce-challenges/master/moderate/burrows_wheeler.hs
https://raw.githubusercontent.com/nikai3d/ce-challenges/master/moderate/burrows_wheeler.go
https://raw.githubusercontent.com/nikai3d/ce-challenges/master/moderate/burrows_wheeler.c
