http://sp4hack.blogspot.com.co/2014/01/overthewire-bandit-level-22-to-level-23.html
https://hackmethod.com/overthewire-bandit-22/
https://alexandervoidstar.wordpress.com/2016/03/20/overthewire-bandit-level-22/
https://blogcompsci.wordpress.com/2014/11/02/bandit-level-22-%E2%86%92-level-23/
http://hexjump.blogspot.com.co/2014/12/bandit-level-22-to-level-23.html
https://infamoussyn.com/2013/11/08/overthewire-bandit-level-0-25-writeup-completed/#level21
https://raw.githubusercontent.com/Cathon/mySolutions/master/overthewire/Bandit/Level_22.md
https://medium.com/@Kan1shka9/overthewire-wargames-bandit-walkthrough-df2b86826c67
https://github.com/milescrabill/overthewire-solutions/blob/master/Bandit.md
https://jdow.io/blog/2017/12/16/overthewire-bandit-wargame-walkthrough/#level-22---23
https://jhalon.github.io/over-the-wire-bandit2/
https://www.youtube.com/watch?v=buX-OBMAYVs
http://blog.zairo.kr/entry/OverTheWire-%E2%80%93-Bandit-Level-22?category=569917
https://www.youtube.com/watch?v=9gK1z_f7TgQhttps://jdow.io/blog/2017/12/16/overthewire-bandit-wargame-walkthrough/#level-22---23
https://raw.githubusercontent.com/Lorenyx/OverTheWire-Solutions/master/bandit/level_22.md
