https://raw.githubusercontent.com/mpillar/codeeval/master/1-moderate/color-code-converter/main.py
https://raw.githubusercontent.com/pascal-bourut/codeeval-challenges/master/moderate/148%20-%20Color%20code%20converter/148.js
https://raw.githubusercontent.com/pascal-bourut/codeeval-challenges/master/moderate/148%20-%20Color%20code%20converter/148.php
https://raw.githubusercontent.com/nikai3d/ce-challenges/master/moderate/color_code_converter.lua
https://raw.githubusercontent.com/nikai3d/ce-challenges/master/moderate/color_code_converter.go
https://raw.githubusercontent.com/nikai3d/ce-challenges/master/moderate/color_code_converter.c
https://raw.githubusercontent.com/TheCK/codeChallenges/master/codeEval/src/main/java/org/ck/codeEval/medium/colorCodeConverter/Main.java
