https://raw.githubusercontent.com/nayuki/Project-Euler-solutions/master/java/p107.java
https://raw.githubusercontent.com/nayuki/Project-Euler-solutions/master/python/p107.py
https://www.mathblog.dk/project-euler-107-efficient-network/
