https://raw.githubusercontent.com/AndyCYao/codeabbey/master/CA_prob_121_Insertion_Sort.py
https://gist.githubusercontent.com/felipernb/3307444/raw/9abab61076450f1fa7c10405aba1318faacfca15/InsertionSort.java
https://gist.githubusercontent.com/maksymddd/dd0f07c7641cfd118267/raw/d7964e3d6c6dd9635681e137eaf77487dd3860f4/insertion_sort.rb
https://gist.githubusercontent.com/JerryBian/3214156/raw/4e6ecb997da45410b47e2f63d5e789327c388ca7/gistfile1.cs
https://gist.githubusercontent.com/elleryq/305b308fc98d72ace9ae/raw/fdb9bfcbe4298e457a757e0d9e6d85190aa39673/insertionsort.cpp
https://gist.githubusercontent.com/Jaskirat/2013150/raw/a48f1d8251e40925da6d543555248d3086c3a968/insertion-sort.clj
https://gist.githubusercontent.com/Konstantinos-infogeek/58e4d9188ddb7568cc952988ad7d339c/raw/009fe397129872d5132d8db911aa5425274956d1/Insertion%2520sort.php
https://gist.githubusercontent.com/mzimecki/6953706/raw/305a7ef62390df4e284a3a972eab72b0a1bd8edc/InsertionSort.scala
https://stackoverflow.com/questions/500607/what-are-the-lesser-known-but-useful-data-structures?fbclid=IwAR1Ua5oadvpgqLCQMLGRkoLOUJRAiOfqTv0DpwZHCo0tO-Kdjx9ntN1SU4U
