http://hacktracking.blogspot.com.co/2013/08/redtigers-hackit-wargame-level-1.html
https://maskray.me/blog/2013-12-02-redtigers-hackit-wargame
https://joizel.readthedocs.io/ko/latest/wargame/web/[redtiger]%20level1.html
http://www.voidcn.com/article/p-gqmfoide-bde.html
http://ju.outofmemory.cn/entry/107022

