https://raw.githubusercontent.com/c650/hackerrank-solutions/master/Algorithms/Implementation/ema-supercomputer.cpp
https://raw.githubusercontent.com/charles-wangkai/hackerrank/master/two-pluses/Solution.java
https://raw.githubusercontent.com/qriklix/hackerrank/master/algorithms/02-implementation/61-two-pluses.js
https://raw.githubusercontent.com/alessandrobardini/HackerRank-Solutions/master/All%20Tracks/Core%20CS/Algorithms/Implementation/Ema's%20Supercomputer/Solution.py
