https://www.mathblog.dk/project-euler-problem-6/
https://raw.githubusercontent.com/nayuki/Project-Euler-solutions/master/haskell/p006.hs
https://raw.githubusercontent.com/nayuki/Project-Euler-solutions/master/java/p006.java
https://raw.githubusercontent.com/nayuki/Project-Euler-solutions/master/mathematica/p006.mathematica
https://raw.githubusercontent.com/smacke/project-euler/master/python/6.py
https://raw.githubusercontent.com/zsiciarz/euler.rs/master/src/solutions/problem6.rs
