https://raw.githubusercontent.com/yanz67/HackerRank/master/Algorithms/Warmup/SolveMeSecond.c
https://raw.githubusercontent.com/sharon-lin/Hackerrank-Solutions/master/Algorithms/Warmup/Solve-me-second.cpp
https://raw.githubusercontent.com/AlexAtNet/galgo/master/solutions/hackerrank/solve-me-second/solve-me-second.go
https://raw.githubusercontent.com/charles-wangkai/hackerrank/master/solve-me-second/Solution.java
https://raw.githubusercontent.com/nctruong/hackerrank-2/master/practice/algorithms/warmup/solve_me_second/SolveMeSecond.js
https://raw.githubusercontent.com/himi1/Hacker-Rank/master/Solve%20Me%20Second.py
https://raw.githubusercontent.com/rootulp/hackerrank/master/ruby/solve_me_second.rb
https://raw.githubusercontent.com/rofrol/rust-hackerrank/master/src/bin/solve-me-second.rs
https://raw.githubusercontent.com/nctruong/hackerrank-2/master/practice/algorithms/warmup/solve_me_second/SolveMeSecond.scala
