https://raw.githubusercontent.com/xamroc/ReverseWords/master/Main.java
https://raw.githubusercontent.com/thiagoalessio/codeeval/master/easy/reverse-words/solution.py
https://gist.githubusercontent.com/yuheiomori/11392218/raw/5304e3289e7ed3c2d6a9f2ea1fcb1476d257abf6/main.c
https://raw.githubusercontent.com/mneudert/codeeval/master/easy/reverse-words/cs.cs
https://raw.githubusercontent.com/thiagoalessio/codeeval/master/easy/reverse-words/solution.js
https://raw.githubusercontent.com/thiagoalessio/codeeval/master/easy/reverse-words/solution.rb
https://raw.githubusercontent.com/thiagoalessio/codeeval/master/easy/reverse-words/solution.sh
https://raw.githubusercontent.com/AnEmortalKid/codeeval-lua/master/src/main/lua/com/anemortalkid/codeeval/lua/easy/reversewords/reverse_words.lua
https://raw.githubusercontent.com/thiagoalessio/codeeval/master/easy/reverse-words/solution.php
