https://raw.githubusercontent.com/marioyc/Online-Judge-Solutions/master/SPOJ/Classical/74%20-%20Divisor%20Summation.cpp
https://raw.githubusercontent.com/diegoeche/SpojProblems/master/74.hs
https://raw.githubusercontent.com/sranshous/SPOJ/master/unsolved/DIVSUM/too_slow/DIVSUM.java
