https://www.mathblog.dk/hackerrank-summing-the-n-series/
https://raw.githubusercontent.com/MaskRay/HackerRank/master/arithmetic-progressions.cc
https://raw.githubusercontent.com/arjun27/hacker-rank/master/arithmetic-progressions.cpp
