https://raw.githubusercontent.com/BlakeBrown/HackerRank-Solutions/master/Algorithms/Warmup/Circular%20Array%20Rotation.cpp
https://raw.githubusercontent.com/RyanFehr/HackerRank/master/Algorithms/Implementation/Circular%20Array%20Rotation/Solution.cs
https://raw.githubusercontent.com/RyanFehr/HackerRank/master/Algorithms/Implementation/Circular%20Array%20Rotation/Solution.java
https://raw.githubusercontent.com/ehouarn-perret/EhouarnPerret.Python.HackerRank/master/1%20-%20Algorithms/0%20-%20Warmup/9%20-%20Circular%20Array%20Rotation.py
