https://raw.githubusercontent.com/PunitGr/codeabbey/master/%2352%20Pythagorean%20Theorem.py
https://raw.githubusercontent.com/AleksandrSD/CodeAbbeyProblems/master/Problem52/Program.cs
https://raw.githubusercontent.com/danielmmetz/codeabbey/master/id52.hs
https://raw.githubusercontent.com/Autumncong/problemssolve/master/Problems/problems52.java
