https://raw.githubusercontent.com/igor-kutepov/codeabbey/master/src/main/java/com/kutepov/samples/codeabbey/FunnyWordsGenerator.java
https://raw.githubusercontent.com/AndyCYao/codeabbey/master/CA_prob_72_Funny_World_Gen.py
https://raw.githubusercontent.com/mmcdon20/code_abbey/master/src/main/scala/Abbey072.scala
https://raw.githubusercontent.com/JesseClarkND/codeabbey_in_C-NET/master/Funny%20Words%20Generator
