25
ZMXSKPLXBTQYSQKQPKWIXXUB BXOBKNLRBTQYSQKQPKWIXXUB
UUSTEFZTFSBRIKJTFLWZNZWJTUCFYAB UMKUSTEFZTCBARXOKXJTFKRNZWJTUCYAB
GDXYROYLDTYRVCFSFVVLIXWSOHSDOMMOAOTTB GXBOOYLDTYRZVVFSFVVLIXWSOHSDMOAOTHB
TKNEXNHOGFJVBFWCYNTJSKMVNQWYKOAKX KNEXIHOGFJVBWFWCYNTJSMVQWYUKOAKJX
QKXPXYYMZKLBZZENJMBZGIVKRKWNAIWCJNTDZE QKSPYYMZKLBZZENJMDIZGIKRKWNAIWCWJNTUZE
BNPPKGQBYIOMSW BNSPAKGQBYIOMSW
PRHUJFTAPQYMNMYAXQBBSILKMFFG HUJFFTAPQVMNYYAXQBNVILKMFFGKGMG
ICKJCQIILRXX ICKCQFGMLRVGX
ANCXJDXOQHAQOUEJA ANCXJDVOFHAROUE
JGWRAQXTKAHMCCNJP JGWRASXTKAHMCRCCJW
NQKYUTBGRARSILLJEXSFLXOQEAA NKYUTBGEVAESSLLJPEYSFLXLQEAA
XGNWQPLGRKHRNGKEGDDRMRGNJALKTLNLY XGNWQPLGFREKXXNGKEGDDRMNROMEJALKTLNY
MEUUFZRCOFETXMFS SEUUFZECOSTXMFS
QHJHAUDVBBLBZDLLTJZQNMAPWAGRPGJFVLY NQHJHAUDVBBLBZDLATJZQMAPAGRHGJRKLY
LRNHNWJRIOKVXHFKMTENWFSKHRZUAGSIEZBBI LGNWJRXPZVXHFKMTENWFKHRZUGRSIEZBBI
TSFHPBOGVSRKLWGHHTLLOGCCLF VSFHPBMGVSRKLGJIKHTLLTGCCLF
MEGWWNTFZNBUXUEDWQQXUUKJBVRLJAOKAEO MEGSWNTZNBUXEDWQQXUUUIUVLJAOKAEO
CIIFKGLPFOZBRMVHCDKUUB CIIFKRLPFOZBVHDKUU
QGHNFOKMFXYWSPWLKMYEWZ NGNOKMFXYWSPWLKMYAEWZ
EFVKFZBVCDELBTHGLWFVVP EFVKEZBVCGLBTHGZWFVP
SNFYLICKRKPEEVBYYTBEIM SNFYLQICKRKPEJVBYYTBBIM
WPQFVPQEHFVBDOHNLETFY WPQFVQEHFVYDOHNLGZTFY
FCZYNWILIXRHDFOTLQXUBGADJADCMKJDXRHSI BCNWILIXRHDFOTLQXUBGADWADCMKJDFRHSI
RVTQMMLWASJBFZMIEXRGYOIZJAQIUAT RVTWMMLWATJBFZMIBURDGOIZJRQIUAHTU
XQQMNTDXKCFJMKXGBXUZXOTMLOGXSN XQMNTDXKCFWMKFGBXUZGIXCTMLOGXSN
