https://www.youtube.com/watch?v=_5GdwOGV4fA
https://www.youtube.com/watch?v=S6FyM9d2fok
https://www.youtube.com/watch?v=vmah_cp1f9g
https://www.youtube.com/watch?v=4TjqiMzZ_ok
https://www.youtube.com/watch?v=9vM6spS0iEI
https://www.youtube.com/watch?v=Jm1QV1ATpzM
https://www.youtube.com/watch?v=VaIvog5uNwE
https://www.youtube.com/watch?v=l24IMkD2sGc
https://www.youtube.com/watch?v=QgkCwTHGH0g
https://www.youtube.com/watch?v=epUEAMicgUs
