https://raw.githubusercontent.com/Chainsawkitten/CodeAbbeyProblems/master/src/Problem%2038/Problem%2038.cpp
https://raw.githubusercontent.com/KlaudioVito/CodeAbbey/master/QuadraticEquation.java
https://raw.githubusercontent.com/YetAnotherMinion/YAMScratch/master/CodeAbbey/c-sol/src/38.c
https://raw.githubusercontent.com/mmcdon20/code_abbey/master/src/main/scala/Abbey038.scala
https://raw.githubusercontent.com/Xzya/CodeAbbeySolutions/master/QuadraticEquation.py
https://raw.githubusercontent.com/JesseClarkND/codeabbey_in_C-NET/master/Quadratic%20Equation
