https://raw.githubusercontent.com/codejoydo/codeforces/master/131a.c
https://raw.githubusercontent.com/nikzsaz/Codeforces-solution/master/131A-capsLock.cpp
https://raw.githubusercontent.com/yeicol/CodeForces/master/CF131ACapsLock.java
https://raw.githubusercontent.com/changyuheng/codeforces-solutions/master/131a.py
https://raw.githubusercontent.com/Erfaniaa/Codeforces/master/131A-cAPSlOCK.pas
