https://raw.githubusercontent.com/mpillar/codeeval/master/1-moderate/jolly-jumpers/Main.java
https://raw.githubusercontent.com/nikai3d/ce-challenges/master/moderate/jolly_jumpers.c
https://raw.githubusercontent.com/nikai3d/ce-challenges/master/moderate/jolly_jumpers.hs
https://raw.githubusercontent.com/nikai3d/ce-challenges/master/moderate/jolly_jumpers.rb
