https://raw.githubusercontent.com/dwiajik/codeforces/master/339A.py
https://raw.githubusercontent.com/nikzsaz/Codeforces-solution/master/339A-HelpFulMath.cpp
https://raw.githubusercontent.com/yeicol/CodeForces/master/CF339HelpfulMaths.java
https://cfsolv.blogspot.com/search/label/codeforces%20solution%20339A
https://mysolutions4you.wordpress.com/2017/08/12/codeforces-solution-339a-helpful-maths/
