https://raw.githubusercontent.com/thiagoalessio/codeeval/master/easy/word-to-digit/solution.js
https://raw.githubusercontent.com/thiagoalessio/codeeval/master/easy/word-to-digit/solution.py
https://raw.githubusercontent.com/thiagoalessio/codeeval/master/easy/word-to-digit/solution.rb
https://raw.githubusercontent.com/thiagoalessio/codeeval/master/easy/word-to-digit/solution.sh
https://raw.githubusercontent.com/blamonet/php-code-eval-solutions/master/word_to_digit.php
https://raw.githubusercontent.com/SedaKunda/CodeEval/master/Easy-Level/WordToDigit.java
