https://raw.githubusercontent.com/travisjeffery/project-euler/master/2.clj
https://raw.githubusercontent.com/gajeshbhat/HackerRank/master/Project%20Euler/Project%20Euler%20%232_%20Even%20Fibonacci%20numbers.cpp
https://raw.githubusercontent.com/mattspaulding/hacker-rank/master/HackerRank/ProjectEuler/ProjectEuler002.cs
https://raw.githubusercontent.com/travisjeffery/project-euler/master/2.hs
https://raw.githubusercontent.com/ParasGarg/HackerRank-Project-Euler-Solutions/master/Project%20Euler%20%232%20-%20Even%20Fibonacci%20Numbers/Project_Euler_Solution%232_-_Even_Fibonacci_Numbers.java
https://raw.githubusercontent.com/andregs/hackerrank/master/projecteuler/euler002.js
https://raw.githubusercontent.com/travisjeffery/project-euler/master/2.py
https://raw.githubusercontent.com/travisjeffery/project-euler/master/2.rb
