https://raw.githubusercontent.com/Waqar-107/Codeforces/master/B-set/432B.FootBall%20Kit.cpp
https://raw.githubusercontent.com/adityagupta1089/Codeforces-Solutions/master/P432B.java
https://raw.githubusercontent.com/changyuheng/codeforces-solutions/master/432b.py
