https://raw.githubusercontent.com/JFMurphy/Codeabbey-solutions/master/Python/P008ArithmeticProgression.py
https://raw.githubusercontent.com/marclerodrigues/ruby_exercises/master/arithmetic_progression.rb
https://raw.githubusercontent.com/Chainsawkitten/CodeAbbeyProblems/master/src/Problem%208/Problem%208.cpp
https://raw.githubusercontent.com/Tempurturtul/CodeAbbey/master/C%23/ArithmeticProgression.cs
https://raw.githubusercontent.com/JFMurphy/Codeabbey-solutions/master/Java/P008_ArithmeticProgression.java
https://raw.githubusercontent.com/chriswood/codeabbey/master/caid8.lisp
https://raw.githubusercontent.com/mpeshehonov/Codeabbey/master/practice/%238/index.php
https://raw.githubusercontent.com/mmcdon20/code_abbey/master/src/main/scala/Abbey008.scala
https://raw.githubusercontent.com/YetAnotherMinion/YAMScratch/master/CodeAbbey/rust-sol/src/8.rs
https://raw.githubusercontent.com/DylanLenz/codeAbbey_Solutions_JavaScript/master/arithmeticProgression_codeAbbey_8.js
https://raw.githubusercontent.com/vinitkantrod/go-codeabbey/master/15_arithematic_progression/main.go
https://raw.githubusercontent.com/JesseClarkND/codeabbey_in_C-NET/master/Arithmetic%20Progression
http://www.codeabbey.com/index/forum_topic/e2932004000264e64a0d8d72924e5f64
https://raw.githubusercontent.com/skilled19/sols/master/harv/codeabbey-8-arithmetic-progression.ml
https://raw.githubusercontent.com/skilled19/sols/master/harv/codeabbey-8-arithmetic-progression.vb
https://raw.githubusercontent.com/skilled19/sols/master/harv/codeabbey-8-arithmetic-progression.jl
