https://raw.githubusercontent.com/codejoydo/codeforces/master/133a.c
https://raw.githubusercontent.com/mpfeifer1/Codeforces/master/133a.cpp
https://raw.githubusercontent.com/yeicol/CodeForces/master/CF133AHQ9.java
https://raw.githubusercontent.com/changyuheng/codeforces-solutions/master/133a.py
