https://raw.githubusercontent.com/StevenDunn/CodeEval/master/StringsAndArrows/c/saa.c
https://raw.githubusercontent.com/StevenDunn/CodeEval/master/StringsAndArrows/cpp/saa.cpp
https://raw.githubusercontent.com/StevenDunn/CodeEval/master/StringsAndArrows/py2/saa.py
https://raw.githubusercontent.com/nikai3d/ce-challenges/master/easy/strings_and_arrows.rb
