https://raw.githubusercontent.com/ArnoldM904/CodeAbbey_Solutions/master/Python/id014-Modular_Calculator.py
https://raw.githubusercontent.com/gravoo/codeabbey/master/Modular%20Calculator%20.cpp
https://raw.githubusercontent.com/Tempurturtul/CodeAbbey/master/C%23/ModularCalculator.cs
https://raw.githubusercontent.com/JFMurphy/Codeabbey-solutions/master/Java/P014_ModularCalculator.java
https://raw.githubusercontent.com/John-Russell/CodeAbbey/master/Modular%20Calculator.rb
https://raw.githubusercontent.com/chriswood/codeabbey/master/caid14.lisp
https://raw.githubusercontent.com/danielmmetz/codeabbey/master/id14.hs
https://raw.githubusercontent.com/mmcdon20/code_abbey/master/src/main/scala/Abbey014.scala
https://raw.githubusercontent.com/McQuinTrix/CodeAbbey/master/14.%20Modular_Calculator.js
https://raw.githubusercontent.com/JesseClarkND/codeabbey_in_C-NET/master/Modular%20Calculator
https://raw.githubusercontent.com/skilled19/sols/master/harv/codeabbey-14-modular-calculator.go
https://raw.githubusercontent.com/skilled19/sols/master/harv/codeabbey-14-modular-calculator.d
https://raw.githubusercontent.com/skilled19/sols/master/harv/codeabbey-14-modular-calculator.pl
https://raw.githubusercontent.com/skilled19/sols/master/harv/codeabbey-14-modular-calculator.lua
https://raw.githubusercontent.com/skilled19/sols/master/harv/codeabbey-14-modular-calculator.fs
https://raw.githubusercontent.com/skilled19/sols/master/harv/codeabbey-14-modular-calculator.php
https://raw.githubusercontent.com/skilled19/sols/master/harv/codeabbey-14-modular-calculator.jl
https://raw.githubusercontent.com/skilled19/sols/master/harv/codeabbey-14-modular-calculator.vb
http://ideone.com/fork/YGOfai
https://stackoverflow.com/questions/35688580/codeabbey-challenge-14-data-entry-issues
